%YAML 1.1
%TAG !u! tag:unity3d.com,2011:
--- !u!1001 &2281388930830300667
PrefabInstance:
  m_ObjectHideFlags: 0
  serializedVersion: 2
  m_Modification:
    serializedVersion: 3
    m_TransformParent: {fileID: 0}
    m_Modifications:
    - target: {fileID: 419916857552870588, guid: 4942c9dae0b28ae4f952f27da6af93e8, type: 3}
      propertyPath: m_Enabled
      value: 1
      objectReference: {fileID: 0}
    - target: {fileID: 419916857552870588, guid: 4942c9dae0b28ae4f952f27da6af93e8, type: 3}
      propertyPath: m_IsTrigger
      value: 0
      objectReference: {fileID: 0}
    - target: {fileID: 1774301232488034191, guid: 4942c9dae0b28ae4f952f27da6af93e8, type: 3}
      propertyPath: moveSpeed
      value: 5
      objectReference: {fileID: 0}
    - target: {fileID: 1774301232488034191, guid: 4942c9dae0b28ae4f952f27da6af93e8, type: 3}
      propertyPath: renderer_trigger
      value: 
      objectReference: {fileID: 1521357206664124995}
    - target: {fileID: 2682377757635014241, guid: 4942c9dae0b28ae4f952f27da6af93e8, type: 3}
      propertyPath: m_StaticEditorFlags
      value: 0
      objectReference: {fileID: 0}
    - target: {fileID: 4347262795935434421, guid: 4942c9dae0b28ae4f952f27da6af93e8, type: 3}
      propertyPath: m_TagString
      value: enemy_dmg
      objectReference: {fileID: 0}
    - target: {fileID: 4347262795935434421, guid: 4942c9dae0b28ae4f952f27da6af93e8, type: 3}
      propertyPath: m_StaticEditorFlags
      value: 0
      objectReference: {fileID: 0}
    - target: {fileID: 7448170655446726740, guid: 4942c9dae0b28ae4f952f27da6af93e8, type: 3}
      propertyPath: m_TagString
      value: enemy_dmg
      objectReference: {fileID: 0}
    - target: {fileID: 7448170655446726740, guid: 4942c9dae0b28ae4f952f27da6af93e8, type: 3}
      propertyPath: m_StaticEditorFlags
      value: 0
      objectReference: {fileID: 0}
    - target: {fileID: 8339245524942375935, guid: 4942c9dae0b28ae4f952f27da6af93e8, type: 3}
      propertyPath: m_LocalPosition.x
      value: 12.6624
      objectReference: {fileID: 0}
    - target: {fileID: 8339245524942375935, guid: 4942c9dae0b28ae4f952f27da6af93e8, type: 3}
      propertyPath: m_LocalPosition.y
      value: 2.4487755
      objectReference: {fileID: 0}
    - target: {fileID: 8339245524942375935, guid: 4942c9dae0b28ae4f952f27da6af93e8, type: 3}
      propertyPath: m_LocalPosition.z
      value: 0
      objectReference: {fileID: 0}
    - target: {fileID: 8339245524942375935, guid: 4942c9dae0b28ae4f952f27da6af93e8, type: 3}
      propertyPath: m_LocalRotation.w
      value: 1
      objectReference: {fileID: 0}
    - target: {fileID: 8339245524942375935, guid: 4942c9dae0b28ae4f952f27da6af93e8, type: 3}
      propertyPath: m_LocalRotation.x
      value: 0
      objectReference: {fileID: 0}
    - target: {fileID: 8339245524942375935, guid: 4942c9dae0b28ae4f952f27da6af93e8, type: 3}
      propertyPath: m_LocalRotation.y
      value: 0
      objectReference: {fileID: 0}
    - target: {fileID: 8339245524942375935, guid: 4942c9dae0b28ae4f952f27da6af93e8, type: 3}
      propertyPath: m_LocalRotation.z
      value: 0
      objectReference: {fileID: 0}
    - target: {fileID: 8339245524942375935, guid: 4942c9dae0b28ae4f952f27da6af93e8, type: 3}
      propertyPath: m_LocalEulerAnglesHint.x
      value: 0
      objectReference: {fileID: 0}
    - target: {fileID: 8339245524942375935, guid: 4942c9dae0b28ae4f952f27da6af93e8, type: 3}
      propertyPath: m_LocalEulerAnglesHint.y
      value: 0
      objectReference: {fileID: 0}
    - target: {fileID: 8339245524942375935, guid: 4942c9dae0b28ae4f952f27da6af93e8, type: 3}
      propertyPath: m_LocalEulerAnglesHint.z
      value: 0
      objectReference: {fileID: 0}
    - target: {fileID: 8399409894154052627, guid: 4942c9dae0b28ae4f952f27da6af93e8, type: 3}
      propertyPath: m_Name
      value: Enemy mele Variant
      objectReference: {fileID: 0}
    - target: {fileID: 8399409894154052627, guid: 4942c9dae0b28ae4f952f27da6af93e8, type: 3}
      propertyPath: m_IsActive
      value: 1
      objectReference: {fileID: 0}
    - target: {fileID: 8399409894154052627, guid: 4942c9dae0b28ae4f952f27da6af93e8, type: 3}
      propertyPath: m_TagString
      value: Enemy
      objectReference: {fileID: 0}
    - target: {fileID: 8399409894154052627, guid: 4942c9dae0b28ae4f952f27da6af93e8, type: 3}
      propertyPath: m_StaticEditorFlags
      value: 0
      objectReference: {fileID: 0}
    m_RemovedComponents:
    - {fileID: 419916857552870588, guid: 4942c9dae0b28ae4f952f27da6af93e8, type: 3}
    m_RemovedGameObjects: []
    m_AddedGameObjects: []
    m_AddedComponents:
    - targetCorrespondingSourceObject: {fileID: 8399409894154052627, guid: 4942c9dae0b28ae4f952f27da6af93e8, type: 3}
      insertIndex: -1
      addedObject: {fileID: 5637198056794633442}
    - targetCorrespondingSourceObject: {fileID: 8399409894154052627, guid: 4942c9dae0b28ae4f952f27da6af93e8, type: 3}
      insertIndex: -1
      addedObject: {fileID: 8934683591648621675}
    - targetCorrespondingSourceObject: {fileID: 8399409894154052627, guid: 4942c9dae0b28ae4f952f27da6af93e8, type: 3}
      insertIndex: -1
      addedObject: {fileID: 8053297057784336184}
  m_SourcePrefab: {fileID: 100100000, guid: 4942c9dae0b28ae4f952f27da6af93e8, type: 3}
--- !u!212 &1521357206664124995 stripped
SpriteRenderer:
  m_CorrespondingSourceObject: {fileID: 771783996170825656, guid: 4942c9dae0b28ae4f952f27da6af93e8, type: 3}
  m_PrefabInstance: {fileID: 2281388930830300667}
  m_PrefabAsset: {fileID: 0}
--- !u!1 &7726397876788646376 stripped
GameObject:
  m_CorrespondingSourceObject: {fileID: 8399409894154052627, guid: 4942c9dae0b28ae4f952f27da6af93e8, type: 3}
  m_PrefabInstance: {fileID: 2281388930830300667}
  m_PrefabAsset: {fileID: 0}
--- !u!114 &5637198056794633442
MonoBehaviour:
  m_ObjectHideFlags: 0
  m_CorrespondingSourceObject: {fileID: 0}
  m_PrefabInstance: {fileID: 0}
  m_PrefabAsset: {fileID: 0}
  m_GameObject: {fileID: 7726397876788646376}
  m_Enabled: 1
  m_EditorHideFlags: 0
  m_Script: {fileID: 11500000, guid: 9a92cef31eaf8bf49af5d52874b57ffb, type: 3}
  m_Name: 
  m_EditorClassIdentifier: 
  vida: 3
--- !u!50 &8934683591648621675
Rigidbody2D:
  serializedVersion: 4
  m_ObjectHideFlags: 0
  m_CorrespondingSourceObject: {fileID: 0}
  m_PrefabInstance: {fileID: 0}
  m_PrefabAsset: {fileID: 0}
  m_GameObject: {fileID: 7726397876788646376}
  m_BodyType: 0
  m_Simulated: 1
  m_UseFullKinematicContacts: 0
  m_UseAutoMass: 0
  m_Mass: 1
  m_LinearDrag: 0
  m_AngularDrag: 0.05
  m_GravityScale: 1
  m_Material: {fileID: 0}
  m_IncludeLayers:
    serializedVersion: 2
    m_Bits: 0
  m_ExcludeLayers:
    serializedVersion: 2
    m_Bits: 0
  m_Interpolate: 0
  m_SleepingMode: 1
  m_CollisionDetection: 0
  m_Constraints: 6
--- !u!61 &8053297057784336184
BoxCollider2D:
  m_ObjectHideFlags: 0
  m_CorrespondingSourceObject: {fileID: 0}
  m_PrefabInstance: {fileID: 0}
  m_PrefabAsset: {fileID: 0}
  m_GameObject: {fileID: 7726397876788646376}
  m_Enabled: 1
  m_Density: 1
  m_Material: {fileID: 0}
  m_IncludeLayers:
    serializedVersion: 2
    m_Bits: 0
  m_ExcludeLayers:
    serializedVersion: 2
    m_Bits: 0
  m_LayerOverridePriority: 0
  m_ForceSendLayers:
    serializedVersion: 2
    m_Bits: 4294967295
  m_ForceReceiveLayers:
    serializedVersion: 2
    m_Bits: 4294967295
  m_ContactCaptureLayers:
    serializedVersion: 2
    m_Bits: 4294967295
  m_CallbackLayers:
    serializedVersion: 2
    m_Bits: 4294967295
  m_IsTrigger: 1
  m_UsedByEffector: 0
  m_UsedByComposite: 0
  m_Offset: {x: 0, y: 0}
  m_SpriteTilingProperty:
    border: {x: 0, y: 0, z: 0, w: 0}
    pivot: {x: 0.5, y: 0.5}
    oldSize: {x: 1.6875, y: 2.9375}
    newSize: {x: 1.6875, y: 2.9375}
    adaptiveTilingThreshold: 0.5
    drawMode: 0
    adaptiveTiling: 0
  m_AutoTiling: 0
  serializedVersion: 2
  m_Size: {x: 1.6875, y: 2.9375}
  m_EdgeRadius: 0
