%YAML 1.1
%TAG !u! tag:unity3d.com,2011:
--- !u!1 &3211914407831636363
GameObject:
  m_ObjectHideFlags: 0
  m_CorrespondingSourceObject: {fileID: 0}
  m_PrefabInstance: {fileID: 0}
  m_PrefabAsset: {fileID: 0}
  serializedVersion: 6
  m_Component:
  - component: {fileID: 2438295774138178287}
  - component: {fileID: 8537142578007060371}
  m_Layer: 0
  m_Name: parallax-demon-woods-bg
  m_TagString: Untagged
  m_Icon: {fileID: 0}
  m_NavMeshLayer: 0
  m_StaticEditorFlags: 0
  m_IsActive: 1
--- !u!4 &2438295774138178287
Transform:
  m_ObjectHideFlags: 0
  m_CorrespondingSourceObject: {fileID: 0}
  m_PrefabInstance: {fileID: 0}
  m_PrefabAsset: {fileID: 0}
  m_GameObject: {fileID: 3211914407831636363}
  serializedVersion: 2
  m_LocalRotation: {x: -0, y: -0, z: -0, w: 1}
  m_LocalPosition: {x: 0.2515, y: 1.2842, z: 10}
  m_LocalScale: {x: 9.723385, y: 8.667288, z: 1}
  m_ConstrainProportionsScale: 0
  m_Children: []
  m_Father: {fileID: 2523308536487167177}
  m_LocalEulerAnglesHint: {x: 0, y: 0, z: 0}
--- !u!212 &8537142578007060371
SpriteRenderer:
  m_ObjectHideFlags: 0
  m_CorrespondingSourceObject: {fileID: 0}
  m_PrefabInstance: {fileID: 0}
  m_PrefabAsset: {fileID: 0}
  m_GameObject: {fileID: 3211914407831636363}
  m_Enabled: 1
  m_CastShadows: 0
  m_ReceiveShadows: 0
  m_DynamicOccludee: 1
  m_StaticShadowCaster: 0
  m_MotionVectors: 1
  m_LightProbeUsage: 1
  m_ReflectionProbeUsage: 1
  m_RayTracingMode: 0
  m_RayTraceProcedural: 0
  m_RenderingLayerMask: 1
  m_RendererPriority: 0
  m_Materials:
  - {fileID: 2100000, guid: a97c105638bdf8b4a8650670310a4cd3, type: 2}
  m_StaticBatchInfo:
    firstSubMesh: 0
    subMeshCount: 0
  m_StaticBatchRoot: {fileID: 0}
  m_ProbeAnchor: {fileID: 0}
  m_LightProbeVolumeOverride: {fileID: 0}
  m_ScaleInLightmap: 1
  m_ReceiveGI: 1
  m_PreserveUVs: 0
  m_IgnoreNormalsForChartDetection: 0
  m_ImportantGI: 0
  m_StitchLightmapSeams: 1
  m_SelectedEditorRenderState: 0
  m_MinimumChartSize: 4
  m_AutoUVMaxDistance: 0.5
  m_AutoUVMaxAngle: 89
  m_LightmapParameters: {fileID: 0}
  m_SortingLayerID: 0
  m_SortingLayer: 0
  m_SortingOrder: -5
  m_Sprite: {fileID: 21300000, guid: 66d32b53fb0668140b16f4de0f4f3226, type: 3}
  m_Color: {r: 1, g: 1, b: 1, a: 1}
  m_FlipX: 0
  m_FlipY: 0
  m_DrawMode: 0
  m_Size: {x: 4.8, y: 2.72}
  m_AdaptiveModeThreshold: 0.5
  m_SpriteTileMode: 0
  m_WasSpriteAssigned: 1
  m_MaskInteraction: 0
  m_SpriteSortPoint: 0
--- !u!1001 &6170555850618482646
PrefabInstance:
  m_ObjectHideFlags: 0
  serializedVersion: 2
  m_Modification:
    serializedVersion: 3
    m_TransformParent: {fileID: 0}
    m_Modifications:
    - target: {fileID: 197379477540321259, guid: 4eb362ded4d1f6f42963eb5caad8aa61, type: 3}
      propertyPath: m_Depth
      value: -1
      objectReference: {fileID: 0}
    - target: {fileID: 197379477540321259, guid: 4eb362ded4d1f6f42963eb5caad8aa61, type: 3}
      propertyPath: orthographic size
      value: 7.8115425
      objectReference: {fileID: 0}
    - target: {fileID: 5303676199165708041, guid: 4eb362ded4d1f6f42963eb5caad8aa61, type: 3}
      propertyPath: dash
      value: 
      objectReference: {fileID: 8300000, guid: 25851a4fb94dc5043aebb721178e6c4d, type: 3}
    - target: {fileID: 5303676199165708041, guid: 4eb362ded4d1f6f42963eb5caad8aa61, type: 3}
      propertyPath: jump
      value: 
      objectReference: {fileID: 8300000, guid: 112b419123e2cdf4db86da1f66abc0f9, type: 3}
    - target: {fileID: 5303676199165708041, guid: 4eb362ded4d1f6f42963eb5caad8aa61, type: 3}
      propertyPath: walk
      value: 
      objectReference: {fileID: 8300000, guid: da26bc1f2c6530a4ab10f44d67694930, type: 3}
    - target: {fileID: 5303676199165708041, guid: 4eb362ded4d1f6f42963eb5caad8aa61, type: 3}
      propertyPath: attack
      value: 
      objectReference: {fileID: 8300000, guid: 293972e3eed227e40bbe18b7617712f9, type: 3}
    - target: {fileID: 5303676199165708041, guid: 4eb362ded4d1f6f42963eb5caad8aa61, type: 3}
      propertyPath: audioSource
      value: 
      objectReference: {fileID: 5389382566235454779}
    - target: {fileID: 5303676199165708041, guid: 4eb362ded4d1f6f42963eb5caad8aa61, type: 3}
      propertyPath: isGround.m_Bits
      value: 64
      objectReference: {fileID: 0}
    - target: {fileID: 6272046651068691397, guid: 4eb362ded4d1f6f42963eb5caad8aa61, type: 3}
      propertyPath: m_Constraints
      value: 4
      objectReference: {fileID: 0}
    - target: {fileID: 6896120264415700498, guid: 4eb362ded4d1f6f42963eb5caad8aa61, type: 3}
      propertyPath: m_Name
      value: Player (1) Variant
      objectReference: {fileID: 0}
    - target: {fileID: 6938513420799840362, guid: 4eb362ded4d1f6f42963eb5caad8aa61, type: 3}
      propertyPath: m_Size.y
      value: 2.3667715
      objectReference: {fileID: 0}
    - target: {fileID: 6938513420799840362, guid: 4eb362ded4d1f6f42963eb5caad8aa61, type: 3}
      propertyPath: m_Offset.y
      value: 0.03536427
      objectReference: {fileID: 0}
    - target: {fileID: 8549697297570982687, guid: 4eb362ded4d1f6f42963eb5caad8aa61, type: 3}
      propertyPath: m_LocalPosition.y
      value: 1.49
      objectReference: {fileID: 0}
    - target: {fileID: 8936824391758721891, guid: 4eb362ded4d1f6f42963eb5caad8aa61, type: 3}
      propertyPath: m_LocalPosition.x
      value: -0.71
      objectReference: {fileID: 0}
    - target: {fileID: 8936824391758721891, guid: 4eb362ded4d1f6f42963eb5caad8aa61, type: 3}
      propertyPath: m_LocalPosition.y
      value: -2.7
      objectReference: {fileID: 0}
    - target: {fileID: 8936824391758721891, guid: 4eb362ded4d1f6f42963eb5caad8aa61, type: 3}
      propertyPath: m_LocalPosition.z
      value: 0
      objectReference: {fileID: 0}
    - target: {fileID: 8936824391758721891, guid: 4eb362ded4d1f6f42963eb5caad8aa61, type: 3}
      propertyPath: m_LocalRotation.w
      value: 1
      objectReference: {fileID: 0}
    - target: {fileID: 8936824391758721891, guid: 4eb362ded4d1f6f42963eb5caad8aa61, type: 3}
      propertyPath: m_LocalRotation.x
      value: -0
      objectReference: {fileID: 0}
    - target: {fileID: 8936824391758721891, guid: 4eb362ded4d1f6f42963eb5caad8aa61, type: 3}
      propertyPath: m_LocalRotation.y
      value: -0
      objectReference: {fileID: 0}
    - target: {fileID: 8936824391758721891, guid: 4eb362ded4d1f6f42963eb5caad8aa61, type: 3}
      propertyPath: m_LocalRotation.z
      value: -0
      objectReference: {fileID: 0}
    - target: {fileID: 8936824391758721891, guid: 4eb362ded4d1f6f42963eb5caad8aa61, type: 3}
      propertyPath: m_LocalEulerAnglesHint.x
      value: 0
      objectReference: {fileID: 0}
    - target: {fileID: 8936824391758721891, guid: 4eb362ded4d1f6f42963eb5caad8aa61, type: 3}
      propertyPath: m_LocalEulerAnglesHint.y
      value: 0
      objectReference: {fileID: 0}
    - target: {fileID: 8936824391758721891, guid: 4eb362ded4d1f6f42963eb5caad8aa61, type: 3}
      propertyPath: m_LocalEulerAnglesHint.z
      value: 0
      objectReference: {fileID: 0}
    m_RemovedComponents: []
    m_RemovedGameObjects: []
    m_AddedGameObjects:
    - targetCorrespondingSourceObject: {fileID: 8549697297570982687, guid: 4eb362ded4d1f6f42963eb5caad8aa61, type: 3}
      insertIndex: -1
      addedObject: {fileID: 2438295774138178287}
    m_AddedComponents:
    - targetCorrespondingSourceObject: {fileID: 6896120264415700498, guid: 4eb362ded4d1f6f42963eb5caad8aa61, type: 3}
      insertIndex: -1
      addedObject: {fileID: 5389382566235454779}
  m_SourcePrefab: {fileID: 100100000, guid: 4eb362ded4d1f6f42963eb5caad8aa61, type: 3}
--- !u!1 &725579875880815044 stripped
GameObject:
  m_CorrespondingSourceObject: {fileID: 6896120264415700498, guid: 4eb362ded4d1f6f42963eb5caad8aa61, type: 3}
  m_PrefabInstance: {fileID: 6170555850618482646}
  m_PrefabAsset: {fileID: 0}
--- !u!82 &5389382566235454779
AudioSource:
  m_ObjectHideFlags: 0
  m_CorrespondingSourceObject: {fileID: 0}
  m_PrefabInstance: {fileID: 0}
  m_PrefabAsset: {fileID: 0}
  m_GameObject: {fileID: 725579875880815044}
  m_Enabled: 1
  serializedVersion: 4
  OutputAudioMixerGroup: {fileID: 0}
  m_audioClip: {fileID: 0}
  m_PlayOnAwake: 0
  m_Volume: 1
  m_Pitch: 1
  Loop: 0
  Mute: 0
  Spatialize: 0
  SpatializePostEffects: 0
  Priority: 128
  DopplerLevel: 1
  MinDistance: 1
  MaxDistance: 500
  Pan2D: 0
  rolloffMode: 0
  BypassEffects: 0
  BypassListenerEffects: 0
  BypassReverbZones: 0
  rolloffCustomCurve:
    serializedVersion: 2
    m_Curve:
    - serializedVersion: 3
      time: 0
      value: 1
      inSlope: 0
      outSlope: 0
      tangentMode: 0
      weightedMode: 0
      inWeight: 0.33333334
      outWeight: 0.33333334
    - serializedVersion: 3
      time: 1
      value: 0
      inSlope: 0
      outSlope: 0
      tangentMode: 0
      weightedMode: 0
      inWeight: 0.33333334
      outWeight: 0.33333334
    m_PreInfinity: 2
    m_PostInfinity: 2
    m_RotationOrder: 4
  panLevelCustomCurve:
    serializedVersion: 2
    m_Curve:
    - serializedVersion: 3
      time: 0
      value: 0
      inSlope: 0
      outSlope: 0
      tangentMode: 0
      weightedMode: 0
      inWeight: 0.33333334
      outWeight: 0.33333334
    m_PreInfinity: 2
    m_PostInfinity: 2
    m_RotationOrder: 4
  spreadCustomCurve:
    serializedVersion: 2
    m_Curve:
    - serializedVersion: 3
      time: 0
      value: 0
      inSlope: 0
      outSlope: 0
      tangentMode: 0
      weightedMode: 0
      inWeight: 0.33333334
      outWeight: 0.33333334
    m_PreInfinity: 2
    m_PostInfinity: 2
    m_RotationOrder: 4
  reverbZoneMixCustomCurve:
    serializedVersion: 2
    m_Curve:
    - serializedVersion: 3
      time: 0
      value: 1
      inSlope: 0
      outSlope: 0
      tangentMode: 0
      weightedMode: 0
      inWeight: 0.33333334
      outWeight: 0.33333334
    m_PreInfinity: 2
    m_PostInfinity: 2
    m_RotationOrder: 4
--- !u!4 &2523308536487167177 stripped
Transform:
  m_CorrespondingSourceObject: {fileID: 8549697297570982687, guid: 4eb362ded4d1f6f42963eb5caad8aa61, type: 3}
  m_PrefabInstance: {fileID: 6170555850618482646}
  m_PrefabAsset: {fileID: 0}
