%YAML 1.1
%TAG !u! tag:unity3d.com,2011:
--- !u!1045 &1
EditorBuildSettings:
  m_ObjectHideFlags: 0
  serializedVersion: 2
  m_Scenes:
  - enabled: 1
    path: Assets/Scenes/Jp.unity
    guid: b9083e15e39c5bb499cf766cb5a4b940
  - enabled: 1
    path: Assets/Scenes/Menu.unity
    guid: cab175e86df5c1542b0a5bb002111566
  - enabled: 1
    path: Assets/Scenes/LoadingScreen.unity
    guid: 5086a789facd53449bbb0b5cfd6967ed
  - enabled: 1
    path: Assets/Scenes/Opciones.unity
    guid: e6446f748daa04244b16b634d26800e9
  - enabled: 1
    path: Assets/Scenes/Instrucciones.unity
    guid: 42a95046701e98341afca11210f63cfb
  - enabled: 1
    path: Assets/Scenes/Creditos.unity
    guid: 7ac9b143b958e654abe441800b87f2b8
  m_configObjects: {}
